<svg width="10" height="14" viewBox="0 0 10 14" fill="none" xmlns="http://www.w3.org/2000/svg">
<path fill-rule="evenodd" clip-rule="evenodd" d="M0.333496 4.99967C0.333496 2.41967 2.42016 0.333008 5.00016 0.333008C7.58016 0.333008 9.66683 2.41967 9.66683 4.99967C9.66683 8.49967 5.00016 13.6663 5.00016 13.6663C5.00016 13.6663 0.333496 8.49967 0.333496 4.99967ZM3.3335 4.99967C3.3335 5.91967 4.08016 6.66634 5.00016 6.66634C5.92016 6.66634 6.66683 5.91967 6.66683 4.99967C6.66683 4.07967 5.92016 3.33301 5.00016 3.33301C4.08016 3.33301 3.3335 4.07967 3.3335 4.99967Z" fill="#8E8E90"/>
</svg>
